module bitbucket.org/zextras/rmg

go 1.17

require (
	github.com/alecthomas/assert v0.0.0-20170929043011-405dbfeb8e38
	github.com/charmbracelet/glamour v0.3.0
	github.com/go-yaml/yaml v2.1.0+incompatible
	github.com/google/wire v0.5.0
	github.com/pkg/errors v0.9.1
	github.com/spf13/afero v1.6.0
	github.com/spf13/cobra v1.3.0
)

require (
	github.com/alecthomas/chroma v0.8.2 // indirect
	github.com/alecthomas/colour v0.0.0-20160524082231-60882d9e2721 // indirect
	github.com/alecthomas/repr v0.0.0-20180818092828-117648cd9897 // indirect
	github.com/aymerick/douceur v0.2.0 // indirect
	github.com/danwakefield/fnmatch v0.0.0-20160403171240-cbb64ac3d964 // indirect
	github.com/dlclark/regexp2 v1.2.0 // indirect
	github.com/gorilla/css v1.0.0 // indirect
	github.com/inconshreveable/mousetrap v1.0.0 // indirect
	github.com/lucasb-eyer/go-colorful v1.2.0 // indirect
	github.com/mattn/go-isatty v0.0.14 // indirect
	github.com/mattn/go-runewidth v0.0.10 // indirect
	github.com/microcosm-cc/bluemonday v1.0.6 // indirect
	github.com/muesli/reflow v0.2.0 // indirect
	github.com/muesli/termenv v0.8.1 // indirect
	github.com/olekukonko/tablewriter v0.0.5 // indirect
	github.com/rivo/uniseg v0.1.0 // indirect
	github.com/sergi/go-diff v1.0.0 // indirect
	github.com/spf13/pflag v1.0.5 // indirect
	github.com/yuin/goldmark v1.3.5 // indirect
	github.com/yuin/goldmark-emoji v1.0.1 // indirect
	golang.org/x/net v0.0.0-20210813160813-60bc85c4be6d // indirect
	golang.org/x/sys v0.0.0-20211210111614-af8b64212486 // indirect
	golang.org/x/text v0.3.7 // indirect
)
